module modernc.org/ccgo/v3

go 1.16

require (
	github.com/dustin/go-humanize v1.0.0
	github.com/kballard/go-shellquote v0.0.0-20180428030007-95032a82bc51
	github.com/pmezard/go-difflib v1.0.0
	golang.org/x/sys v0.0.0-20211007075335-d3039528d8ac
	golang.org/x/tools v0.0.0-20201124115921-2c860bdd6e78
	modernc.org/cc/v3 v3.35.22
	modernc.org/ccorpus v1.11.4
	modernc.org/libc v1.14.5
	modernc.org/mathutil v1.4.1
	modernc.org/opt v0.1.1
)
